<?xml version="1.0" encoding="utf-8"?>
<!-- Generator: Adobe Illustrator 16.0.0, SVG Export Plug-In . SVG Version: 6.00 Build 0)  -->
<!DOCTYPE svg PUBLIC "-//W3C//DTD SVG 1.1//EN" "http://www.w3.org/Graphics/SVG/1.1/DTD/svg11.dtd">
<svg version="1.1" xmlns="http://www.w3.org/2000/svg" xmlns:xlink="http://www.w3.org/1999/xlink" x="0px" y="0px"
	 width="5399.076px" height="200px" viewBox="0 0 5399.076 200" enable-background="new 0 0 5399.076 200" xml:space="preserve">
<g id="Layer_1">
	<g>
		<path fill="#020000" d="M4573.576,143c-13.5,2-11.5,18.5-25.5,21c-10.236,1.828-20.994-1.159-28.781-4.85
			c0.281-39.65-36.219-65.15-36.219-65.15s26.1-9,22-53c-0.415-4.452,5.944-25.429,0-23.5c-7.309,2.37-12,9.5-24,14.5s-28-2-28-2
			s-10.824-10.141-19-15.5c-6.742-4.42-5,5.5-2,15.5s0,16,0,31s12,29,21,33c0,0-5.5,27.5-6,37s-1.493,30.168-6,32.333
			c-6.283,3.019-11,5.167-13.32,11.667s4.32,11.5,7.82,11.5s7.5-4,7.5-4s8.071,6.167,13.277,6.5c17,1.086,19.723-11.5,19.723-11.5
			s2.527,0.337,5,0.5c4.492,0.296,8-2,6.5,7c-1.727,10.357,13.5,6.287,13.5,6.287c9.953-1.659,13.622-6.154,17-18.787
			c41,9.5,47-10,52.5-18.83s20.5,0.106,20.5,0.106S4587.076,141,4573.576,143z M4459.576,164c-3,2-3,3.5-3,3.5s-0.5-3,0-5s3-7,3-7
			S4462.576,162,4459.576,164z"/>
		<ellipse fill="#FCFCFC" cx="4453.743" cy="56.75" rx="7.167" ry="6.75"/>
		<ellipse fill="#FCFCFC" cx="4480.243" cy="59.25" rx="7.167" ry="6.75"/>
	</g>
	<g>
		<path fill="#020000" d="M4973.576,143c-13.5,2-11.5,18.5-25.5,21c-10.236,1.828-20.994-1.159-28.781-4.85
			c0.281-39.65-36.219-65.15-36.219-65.15s26.1-9,22-53c-0.415-4.452,5.943-25.429,0-23.5c-7.309,2.37-12,9.5-24,14.5s-28-2-28-2
			s-10.824-10.141-19-15.5c-6.742-4.42-5,5.5-2,15.5s0,16,0,31s12,29,21,33c0,0-5.5,27.5-6,37s-1.492,30.168-6,32.333
			c-6.283,3.019-11,5.167-13.32,11.667s4.32,11.5,7.82,11.5s7.5-4,7.5-4s8.071,6.167,13.277,6.5c17,1.086,19.723-11.5,19.723-11.5
			s2.527,0.337,5,0.5c4.492,0.296,8-2,6.5,7c-1.727,10.357,13.5,6.287,13.5,6.287c9.953-1.659,13.622-6.154,17-18.787
			c41,9.5,47-10,52.5-18.83s20.5,0.106,20.5,0.106S4987.076,141,4973.576,143z M4859.576,164c-3,2-3,3.5-3,3.5s-0.5-3,0-5s3-7,3-7
			S4862.576,162,4859.576,164z"/>
		<ellipse fill="#FCFCFC" cx="4853.743" cy="56.75" rx="7.167" ry="6.75"/>
		<ellipse fill="#FCFCFC" cx="4880.243" cy="59.25" rx="7.167" ry="6.75"/>
	</g>
	<g>
		<path fill="#020000" d="M4773.576,143c-13.5,2-11.5,18.5-25.5,21c-10.236,1.828-20.994-1.159-28.781-4.85
			c0.281-39.65-36.219-65.15-36.219-65.15s26.1-9,22-53c-0.415-4.452,5.944-25.429,0-23.5c-7.309,2.37-12,9.5-24,14.5s-28-2-28-2
			s-10.824-10.141-19-15.5c-6.742-4.42-5,5.5-2,15.5s0,16,0,31s12,29,21,33c0,0-5.5,27.5-6,37s-1.493,30.168-6,32.333
			c-6.283,3.019-11,5.167-13.32,11.667s4.32,11.5,7.82,11.5s7.5-4,7.5-4s8.071,6.167,13.277,6.5c17,1.086,19.723-11.5,19.723-11.5
			s2.527,0.337,5,0.5c4.492,0.296,8-2,6.5,7c-1.727,10.357,13.5,6.287,13.5,6.287c9.953-1.659,13.622-6.154,17-18.787
			c41,9.5,47-10,52.5-18.83s20.5,0.106,20.5,0.106S4787.076,141,4773.576,143z M4659.576,164c-3,2-3,3.5-3,3.5s-0.5-3,0-5s3-7,3-7
			S4662.576,162,4659.576,164z"/>
		<ellipse fill="#FCFCFC" cx="4653.743" cy="56.75" rx="7.167" ry="6.75"/>
		<ellipse fill="#FCFCFC" cx="4680.243" cy="59.25" rx="7.167" ry="6.75"/>
	</g>
	<g>
		<path fill="#020000" d="M5173.576,143c-13.5,2-11.5,18.5-25.5,21c-10.236,1.828-20.994-1.159-28.781-4.85
			c0.281-39.65-36.219-65.15-36.219-65.15s26.1-9,22-53c-0.415-4.452,5.943-25.429,0-23.5c-7.309,2.37-12,9.5-24,14.5s-28-2-28-2
			s-10.824-10.141-19-15.5c-6.742-4.42-5,5.5-2,15.5s0,16,0,31s12,29,21,33c0,0-5.5,27.5-6,37s-1.492,30.168-6,32.333
			c-6.283,3.019-11,5.167-13.32,11.667s4.32,11.5,7.82,11.5s7.5-4,7.5-4s8.071,6.167,13.277,6.5c17,1.086,19.723-11.5,19.723-11.5
			s2.527,0.337,5,0.5c4.492,0.296,8-2,6.5,7c-1.727,10.357,13.5,6.287,13.5,6.287c9.953-1.659,13.622-6.154,17-18.787
			c41,9.5,47-10,52.5-18.83s20.5,0.106,20.5,0.106S5187.076,141,5173.576,143z M5059.576,164c-3,2-3,3.5-3,3.5s-0.5-3,0-5s3-7,3-7
			S5062.576,162,5059.576,164z"/>
		<ellipse fill="#FCFCFC" cx="5053.743" cy="56.75" rx="7.167" ry="6.75"/>
		<ellipse fill="#FCFCFC" cx="5080.243" cy="59.25" rx="7.167" ry="6.75"/>
	</g>
	<g>
		<path fill="#020000" d="M5373.576,143c-13.5,2-11.5,18.5-25.5,21c-10.236,1.828-20.994-1.158-28.781-4.85
			c0.281-39.65-36.219-65.15-36.219-65.15s26.1-9,22-53c-0.415-4.452,5.943-25.429,0-23.5c-7.309,2.37-12,9.5-24,14.5s-28-2-28-2
			s-10.824-10.141-19-15.5c-6.742-4.42-5,5.5-2,15.5s0,16,0,31s12,29,21,33c0,0-5.5,27.5-6,37s-1.492,30.168-6,32.334
			c-6.283,3.018-11,5.166-13.32,11.666s4.32,11.5,7.82,11.5s7.5-4,7.5-4s8.071,6.168,13.277,6.5c17,1.086,19.723-11.5,19.723-11.5
			s2.527,0.338,5,0.5c4.492,0.297,8-2,6.5,7c-1.727,10.357,13.5,6.287,13.5,6.287c9.953-1.658,13.622-6.154,17-18.787
			c41,9.5,47-10,52.5-18.83s20.5,0.107,20.5,0.107S5387.076,141,5373.576,143z M5259.576,164c-3,2-3,3.5-3,3.5s-0.5-3,0-5s3-7,3-7
			S5262.576,162,5259.576,164z"/>
		<ellipse fill="#FCFCFC" cx="5253.743" cy="56.75" rx="7.167" ry="6.75"/>
		<ellipse fill="#FCFCFC" cx="5280.243" cy="59.25" rx="7.167" ry="6.75"/>
	</g>
</g>
<g id="Layer_2">
	<path d="M4373.576,143.162c-13.5,2-11.5,18.5-25.5,21c-10.236,1.828-20.994-1.159-28.781-4.85
		c0.281-39.65-36.219-65.15-36.219-65.15s26.1-9,22-53c-0.415-4.453,5.944-25.428,0-23.5c-7.308,2.37-12,9.5-24,14.5s-28-2-28-2
		s-10.824-10.141-19-15.5c-6.743-4.42-5,5.5-2,15.5s0,16,0,31s12,29,21,33c0,0-5.5,27.5-6,37s-0.826,30.168-5.333,32.333
		c-6.283,3.019-11.667,5.167-13.986,11.667c-2.32,6.5,4.319,11.5,7.819,11.5s7.5-4,7.5-4s8.071,6.167,13.278,6.5
		c17,1.086,19.722-11.5,19.722-11.5s2.527,0.337,5,0.5c4.49,0.296,8-2,6.5,7c-1.727,10.357,13.5,6.287,13.5,6.287
		c9.953-1.659,13.622-6.154,17-18.787c41,9.5,47-10,52.5-18.83s20.5,0.106,20.5,0.106S4387.076,141.162,4373.576,143.162z
		 M4259.576,164.162c-3,2-3,3.5-3,3.5s-0.5-3,0-5s3-7,3-7S4262.576,162.162,4259.576,164.162z"/>
</g>
<g id="Layer_3">
	<path d="M4173.576,143.161c-13.5,2-11.5,18.5-25.5,21c-10.236,1.828-20.994-1.158-28.781-4.85
		c0.281-39.65-36.219-65.15-36.219-65.15s26.1-9,22-53c-0.415-4.453,5.944-25.428,0-23.5c-7.309,2.37-12,9.5-24,14.5s-28-2-28-2
		s-10.824-10.141-19-15.5c-6.742-4.42-5,5.5-2,15.5s0,16,0,31s12,29,21,33c0,0-5.5,27.5-6,37s-0.826,30.502-5.333,32.668
		c-6.283,3.018-11.667,4.832-13.987,11.332c-2.319,6.5,4.32,11.5,7.82,11.5s7.5-4,7.5-4s8.071,6.168,13.277,6.5
		c17,1.086,19.723-11.5,19.723-11.5s2.527,0.338,5,0.5c4.492,0.297,8-2,6.5,7c-1.727,10.357,13.5,6.287,13.5,6.287
		c9.953-1.658,13.622-6.154,17-18.787c41,9.5,47-10,52.5-18.83s20.5,0.107,20.5,0.107S4187.076,141.161,4173.576,143.161z
		 M4059.576,164.161c-3,2-3,3.5-3,3.5s-0.5-3,0-5s3-7,3-7S4062.576,162.161,4059.576,164.161z"/>
	<ellipse fill="#FCFCFC" cx="4053.743" cy="56.912" rx="7.167" ry="6.75"/>
	<ellipse fill="#FCFCFC" cx="4080.243" cy="59.412" rx="7.167" ry="6.75"/>
</g>
<g id="Layer_4">
	<path d="M3973.576,143.162c-13.5,2-11.5,18.5-25.5,21c-10.236,1.828-20.994-1.16-28.781-4.85
		c0.281-39.65-36.219-65.15-36.219-65.15s26.1-9,22-53c-0.415-4.453,5.944-25.428,0-23.5c-7.308,2.37-12,9.5-24,14.5s-28-2-28-2
		s-10.825-10.141-19-15.5c-6.743-4.42-5,5.5-2,15.5s0,16,0,31s12,29,21,33c0,0-5.5,27.5-6,37s-1.826,30.168-6.333,32.332
		c-6.283,3.02-10.667,5.168-12.986,11.668c-2.32,6.5,4.319,11.5,7.819,11.5s7.5-4,7.5-4s8.071,6.166,13.278,6.5
		c17,1.086,19.722-11.5,19.722-11.5s2.527,0.336,5,0.5c4.49,0.295,8-2,6.5,7c-1.727,10.357,13.5,6.287,13.5,6.287
		c9.953-1.66,13.622-6.154,17-18.787c41,9.5,47-10,52.5-18.83s20.5,0.105,20.5,0.105S3987.076,141.162,3973.576,143.162z
		 M3859.576,164.162c-3,2-3,3.5-3,3.5s-0.5-3,0-5s3-7,3-7S3862.576,162.162,3859.576,164.162z"/>
</g>
<g id="Layer_5">
	<path d="M3773.576,143.162c-13.5,2-11.5,18.5-25.5,21c-10.236,1.828-20.994-1.16-28.781-4.85
		c0.281-39.65-36.219-65.151-36.219-65.151s26.1-9,22-53c-0.415-4.453,5.944-25.428,0-23.5c-7.309,2.37-12,9.5-24,14.5s-28-2-28-2
		s-10.824-10.141-19-15.5c-6.742-4.42-5,5.5-2,15.5s0,16,0,31s12,29,21,33c0,0-5.5,27.5-6,37s-0.16,31.168-4.666,33.332
		c-6.283,3.02-12.334,4.168-14.654,10.668c-2.319,6.5,4.32,11.5,7.82,11.5s7.5-4,7.5-4s8.071,6.166,13.277,6.5
		c17,1.086,19.723-11.5,19.723-11.5s2.527,0.336,5,0.5c4.492,0.295,8-2,6.5,7c-1.727,10.357,13.5,6.287,13.5,6.287
		c9.953-1.66,13.622-6.154,17-18.787c41,9.5,47-10,52.5-18.83s20.5,0.105,20.5,0.105S3787.076,141.162,3773.576,143.162z
		 M3659.576,164.162c-3,2-3,3.5-3,3.5s-0.5-3,0-5s3-7,3-7S3662.576,162.162,3659.576,164.162z"/>
	<ellipse fill="#FCFCFC" cx="3653.743" cy="56.912" rx="7.167" ry="6.75"/>
	<ellipse fill="#FCFCFC" cx="3680.243" cy="59.412" rx="7.167" ry="6.75"/>
</g>
<g id="Layer_6">
	<g>
		<g>
			<path d="M3573.576,143.162c-13.5,2-11.5,18.5-25.5,21c-10.236,1.828-20.994-1.16-28.781-4.85
				c0.281-39.65-36.219-65.151-36.219-65.151s26.1-9,22-53c-0.415-4.453,5.944-25.428,0-23.5c-7.309,2.37-12,9.5-24,14.5s-28-2-28-2
				s-10.824-10.141-19-15.5c-6.742-4.42-5,5.5-2,15.5s0,16,0,31s7.334,28.334,21,33c0,0-4.039,17.461-5.25,28.75
				c-5.806,2.004-10.131,5.443-13.5,8c-4.102,3.111-17.25,17.25-11.25,22.75c4.618,4.232,9.713,6.361,11.5,3
				c7.444-14,12.25-14.25,12.25-14.25c-0.486,8.166-1.836,21.656-4.806,23.082c-6.283,3.02-11.944,3.168-14.265,9.668
				c-2.319,6.5,4.32,11.5,7.82,11.5s20.777-2,24-25c0.338-2.408,2.314,4.084,9.333,13c5.091,6.467,19.356,6.361,18.667,10.5
				c-1.727,10.357,13.5,6.287,13.5,6.287c9.953-1.66,13.622-6.154,17-18.787c41,9.5,47-10,52.5-18.83s20.5,0.105,20.5,0.105
				S3587.076,141.162,3573.576,143.162z"/>
			<ellipse fill="#FCFCFC" cx="3449.187" cy="59.412" rx="7.167" ry="6.75"/>
			<ellipse fill="#FCFCFC" cx="3479.076" cy="63.162" rx="7.167" ry="6.75"/>
		</g>
	</g>
</g>
<g id="Layer_7">
	<g>
		<g>
			<path d="M3373.576,143.162c-13.5,2-11.5,18.5-25.5,21c-10.236,1.828-20.994-1.16-28.781-4.85
				c0.281-39.651-36.219-65.151-36.219-65.151s26.1-9,22-53c-0.415-4.452,5.278-21.928-0.666-20
				c-7.309,2.371-14.334,14.668-28,15.334c-12.984,0.633-23.334-6.334-23.334-6.334s-6.491-9.307-14.666-14.666
				c-6.743-4.42-9.334,4.666-6.334,14.666s0.661,16.016,0,31c-1,22.667,12,29,21,33c0,0-2.678,8.035-3.889,19.324
				c-9.111-3.324-19.198,0.512-22.925,2.51c-5.119,2.744-8.752,1.832-7.187,11.5c1.002,6.184,9.029,7.908,11.377,4.908
				c7.234-9.242,18.734-1.574,18.734-1.574c-0.486,8.166-4.197,32.905-7.167,34.333c-6.283,3.018-11.944,3.5-14.265,10
				c-2.319,6.5,4.32,11.5,7.82,11.5s20.777-2,24-25c0.338-2.408,2.314,4.084,9.333,13c5.091,6.467,19.356,6.361,18.667,10.5
				c-1.727,10.357,13.5,6.287,13.5,6.287c9.953-1.66,13.622-6.154,17-18.787c41,9.5,47-10,52.5-18.83s20.5,0.105,20.5,0.105
				S3387.076,141.162,3373.576,143.162z"/>
			<ellipse fill="#FCFCFC" cx="3247.521" cy="60.745" rx="7.167" ry="6.75"/>
			<ellipse fill="#FCFCFC" cx="3276.409" cy="64.495" rx="7.167" ry="6.75"/>
		</g>
	</g>
</g>
<g id="Layer_8">
	<g>
		<g>
			<path d="M3173.576,143.162c-13.5,2-11.5,18.5-25.5,21c-10.236,1.828-20.994-1.16-28.781-4.85
				c0.281-39.65-36.219-65.151-36.219-65.151s26.1-9,22-53c-0.415-4.453,5.278-21.928-0.666-20c-7.309,2.37-14.334,14.667-28,15.334
				c-12.984,0.633-23.334-6.334-23.334-6.334s-6.491-9.307-14.666-14.666c-6.743-4.42-9.334,4.666-6.334,14.666s0.661,16.015,0,31
				c-1,22.666,12,29,21,33c0,0-1.511-0.01-2.722,11.278c-9.111-3.322-14.624-5.23-22.612-2.146
				c-4.734,1.826-13.938,2.703-13.666,11.369c0.157,5.012,5.612,10.346,9.834,6.666c13-11.332,24.999-0.332,24.999-0.332
				c-0.485,8.166-3.919,42.738-6.889,44.166c-6.283,3.018-11.944,3.5-14.265,10c-2.319,6.5,4.32,11.5,7.82,11.5s20.777-2,24-25
				c0.338-2.408,2.314,4.084,9.333,13c5.091,6.467,19.356,6.361,18.667,10.5c-1.727,10.357,13.5,6.287,13.5,6.287
				c9.953-1.66,13.622-6.154,17-18.787c41,9.5,47-10,52.5-18.83s20.5,0.105,20.5,0.105S3187.076,141.162,3173.576,143.162z"/>
			<path fill="#FCFCFC" d="M3054.688,62.079c0,3.728-3.209,6.75-7.167,6.75s-7.167-3.022-7.167-6.75s2.557-4.083,7.167-1.75
				C3051.052,62.116,3054.688,61.162,3054.688,62.079z"/>
			<path fill="#FCFCFC" d="M3082.743,65.808c0,3.729-3.209,6.75-7.168,6.75c-3.957,0-7.166-3.021-7.166-6.75s3.21-1,7.167-1
				C3079.535,64.808,3082.743,63.825,3082.743,65.808z"/>
		</g>
	</g>
</g>
<g id="Layer_9">
	<g>
		<g>
			<g>
				<path d="M2973.576,143.162c-13.5,2-11.5,18.5-25.5,21c-10.236,1.828-20.994-1.159-28.781-4.85
					c0.281-39.65-34.053-64.983-34.053-64.983s21.431-7.5,17.331-51.5c-0.415-4.453,3.589-21.309-2.355-19.38
					c-7.308,2.37-10.975,14.714-24.642,15.38c-12.984,0.633-23.717-3.417-23.717-3.417s-3.607-9.141-11.783-14.5
					c-6.742-4.42-11-0.75-8,9.25s0.492,16.008,0,31c-1,30.5,12.697,31,21,33c0,0,1.25-0.25,0.25,4.75
					c-7.166-1.913-12.365-0.836-17.596,1.298c-17.654,7.202-5.566,19.759-3.664,18.593c15.778-9.667,19.954-1.307,19.954-1.307
					c-0.485,8.167-7.03,46.239-10,47.666c-6.283,3.019-11.944,3.5-14.265,10c-2.319,6.5,4.32,11.5,7.82,11.5s20.777-2,24-25
					c0.338-2.408,2.314,4.085,9.333,13c5.091,6.467,19.356,6.361,18.667,10.5c-1.727,10.357,13.5,6.287,13.5,6.287
					c9.953-1.659,13.622-6.154,17-18.787c41,9.5,47-10,52.5-18.83s20.5,0.106,20.5,0.106S2987.076,141.162,2973.576,143.162z"/>
				<path fill="#FCFCFC" d="M2851.859,71.333c0,3.728-3.047,4.83-7.006,4.83c-3.957,0-7.166-3.022-7.166-6.75
					c0-2.202,1.764,0.25,7.113,1.25C2849.613,71.562,2851.859,70.416,2851.859,71.333z"/>
				<path fill="#FCFCFC" d="M2875.167,76.971c-1.581,2.219-2.8,3.548-6.759,3.548c-3.957,0-7.113-2.229-7.113-5.958
					s1.156,0.101,7.614,0.351C2872.865,75.065,2876.318,75.355,2875.167,76.971z"/>
			</g>
			<path fill="#E55A71" d="M2850.41,90.496c0,0,8.166,2.333,7.332,3.5c-0.833,1.167-2.832,3.667-1.832,7s-5.016,3.537-6.516,1.87
				s-3.152-3.037-1.652-7.371S2850.41,90.496,2850.41,90.496z"/>
		</g>
	</g>
</g>
<g id="Layer_10">
	<g>
		<path d="M2773.576,143.162c-13.5,2-11.5,18.5-25.5,21c-10.236,1.828-20.994-1.16-28.781-4.85
			c0.281-39.65-34.469-67.15-34.469-67.15s23.75-17.5,9.25-51c-5.466-12.629-1.75-25.75-9.183-23.639
			c-7.391,2.1-10.053,16.741-12.99,17.827c-18.426,6.812-28.1,3.377-28.1,3.377s-5.45-5.482-15.478-8.815
			c-10.886-3.619-12.25,3.917-6.917,11.917c5.792,8.687,6.158,11.142,6.667,21.583c1.671,34.329,17.194,32.07,25.497,34.07
			c0,0,0.37,1.157-0.096,4.43c-7.167-1.913-12.387-3.484-17.746-1.702c-20.155,6.702-7.33,19.264-5.428,18.098
			c15.778-9.667,21.717-0.812,21.717-0.812c-0.486,8.167-7.029,46.238-10,47.666c-6.283,3.018-11.944,3.5-14.264,10
			c-2.32,6.5,4.319,11.5,7.819,11.5s20.778-2,24-25c0.337-2.408,2.313,4.084,9.333,13c5.092,6.467,19.356,6.361,18.667,10.5
			c-1.726,10.357,13.5,6.287,13.5,6.287c9.953-1.66,13.622-6.154,17-18.787c41,9.5,47-10,52.5-18.83s20.5,0.105,20.5,0.105
			S2787.076,141.162,2773.576,143.162z"/>
		<path fill="#FCFCFC" d="M2653.428,74.277c0.465,3.699-2.421,5.172-6.348,5.666s-7.487-2.104-7.952-5.803
			c-0.275-2.185,1.78,0.027,7.213,0.353C2651.229,74.784,2653.313,73.367,2653.428,74.277z"/>
		<path fill="#FCFCFC" d="M2677.727,73.941c-0.919,2.565-1.731,4.174-5.543,5.249c-3.809,1.073-7.45-0.216-8.462-3.805
			c-1.012-3.588,1.14-0.216,7.423-1.727C2674.994,72.732,2678.396,72.073,2677.727,73.941z"/>
	</g>
</g>
<g id="Layer_11">
	<g>
		<g>
			<g>
				<path d="M2573.576,143.162c-13.5,2-11.5,18.5-25.5,21c-10.236,1.828-20.994-1.158-28.781-4.85
					c0.281-39.65-34.053-64.983-34.053-64.983s21.431-7.5,17.331-51.5c-0.415-4.453,3.589-21.309-2.355-19.38
					c-7.308,2.37-10.975,14.714-24.642,15.38c-12.984,0.633-23.717-3.417-23.717-3.417s-3.607-9.141-11.783-14.5
					c-6.742-4.42-11-0.75-8,9.25s0.492,16.008,0,31c-1,30.5,12.697,31,21,33c0,0,1.25-0.25,0.25,4.75
					c-7.166-1.913-12.365-0.836-17.596,1.298c-17.654,7.202-5.566,19.759-3.664,18.593c15.778-9.667,19.954-1.307,19.954-1.307
					c-0.485,8.167-7.03,46.24-10,47.666c-6.283,3.02-11.944,3.5-14.265,10c-2.319,6.5,4.32,11.5,7.82,11.5s20.777-2,24-25
					c0.338-2.408,2.314,4.086,9.333,13c5.091,6.467,19.356,6.361,18.667,10.5c-1.727,10.357,13.5,6.287,13.5,6.287
					c9.953-1.658,13.622-6.154,17-18.787c41,9.5,47-10,52.5-18.83s20.5,0.107,20.5,0.107S2587.076,141.162,2573.576,143.162z"/>
				<path fill="#FCFCFC" d="M2451.859,71.333c0,3.728-3.047,4.83-7.006,4.83c-3.957,0-7.166-3.022-7.166-6.75
					c0-2.202,1.764,0.25,7.113,1.25C2449.613,71.562,2451.859,70.416,2451.859,71.333z"/>
				<path fill="#FCFCFC" d="M2475.167,76.971c-1.581,2.219-2.8,3.548-6.759,3.548c-3.957,0-7.113-2.229-7.113-5.958
					s1.156,0.101,7.614,0.351C2472.865,75.065,2476.318,75.355,2475.167,76.971z"/>
			</g>
			<path fill="#E55A71" d="M2450.41,90.496c0,0,8.166,2.333,7.332,3.5c-0.833,1.167-2.832,3.667-1.832,7s-5.016,3.537-6.516,1.87
				s-3.152-3.037-1.652-7.371S2450.41,90.496,2450.41,90.496z"/>
		</g>
	</g>
</g>
<g id="Layer_12">
	<g>
		<path d="M2373.576,143.162c-13.5,2-11.5,18.5-25.5,21c-10.236,1.828-20.994-1.16-28.781-4.85
			c0.281-39.65-34.469-67.15-34.469-67.15s23.75-17.5,9.25-51c-5.467-12.629-1.75-25.75-9.182-23.639
			c-7.391,2.1-10.054,16.741-12.992,17.827c-18.426,6.812-28.099,3.377-28.099,3.377s-5.45-5.482-15.478-8.815
			c-10.885-3.619-12.25,3.917-6.916,11.917c5.791,8.688,6.158,11.143,6.666,21.584c1.672,34.328,17.194,32.069,25.497,34.069
			c0,0,0.37,1.157-0.097,4.431c-7.166-1.913-12.386-3.484-17.746-1.703c-20.154,6.703-7.329,19.264-5.427,18.098
			c15.778-9.666,21.717-0.811,21.717-0.811c-0.485,8.166-7.03,46.238-10,47.666c-6.283,3.018-11.944,3.5-14.265,10
			c-2.319,6.5,4.32,11.5,7.82,11.5s20.777-2,24-25c0.338-2.408,2.314,4.084,9.333,13c5.091,6.467,19.356,6.361,18.667,10.5
			c-1.727,10.357,13.5,6.287,13.5,6.287c9.953-1.66,13.622-6.154,17-18.787c41,9.5,47-10,52.5-18.83s20.5,0.105,20.5,0.105
			S2387.076,141.162,2373.576,143.162z"/>
		<path fill="#FCFCFC" d="M2253.428,74.276c0.465,3.699-2.421,5.173-6.348,5.666c-3.928,0.493-7.488-2.104-7.953-5.804
			c-0.273-2.184,1.781,0.027,7.214,0.354C2251.229,74.783,2253.313,73.367,2253.428,74.276z"/>
		<path fill="#FCFCFC" d="M2277.727,73.941c-0.92,2.564-1.732,4.174-5.543,5.248c-3.809,1.073-7.451-0.217-8.463-3.805
			c-1.012-3.589,1.141-0.217,7.424-1.728C2274.994,72.731,2278.396,72.072,2277.727,73.941z"/>
	</g>
</g>
<g id="Layer_13">
	<g>
		<g>
			<g>
				<path d="M2173.576,143.161c-13.5,2-11.5,18.5-25.5,21c-10.236,1.828-20.994-1.158-28.781-4.85
					c0.281-39.65-34.053-64.983-34.053-64.983s21.431-7.5,17.331-51.5c-0.415-4.452,3.589-21.309-2.355-19.38
					c-7.308,2.369-10.975,14.713-24.642,15.38c-12.984,0.634-23.717-3.417-23.717-3.417s-3.607-9.141-11.783-14.5
					c-6.742-4.42-11-0.75-8,9.25s0.492,16.008,0,31c-1,30.5,12.697,31,21,33c0,0,1.25-0.25,0.25,4.75
					c-7.166-1.912-12.365-0.836-17.596,1.297c-17.654,7.202-5.566,19.759-3.664,18.593c15.778-9.666,19.954-1.307,19.954-1.307
					c-0.485,8.168-7.03,46.24-10,47.666c-6.283,3.02-11.944,3.5-14.265,10c-2.319,6.5,4.32,11.5,7.82,11.5s20.777-2,24-25
					c0.338-2.408,2.314,4.086,9.333,13c5.091,6.467,19.356,6.361,18.667,10.5c-1.727,10.357,13.5,6.287,13.5,6.287
					c9.953-1.658,13.622-6.154,17-18.787c41,9.5,47-10,52.5-18.83s20.5,0.107,20.5,0.107S2187.076,141.161,2173.576,143.161z"/>
				<path fill="#FCFCFC" d="M2051.859,71.332c0,3.729-3.047,4.83-7.006,4.83c-3.957,0-7.166-3.021-7.166-6.75
					c0-2.201,1.764,0.25,7.113,1.25C2049.613,71.561,2051.859,70.416,2051.859,71.332z"/>
				<path fill="#FCFCFC" d="M2075.167,76.97c-1.581,2.219-2.8,3.549-6.759,3.549c-3.957,0-7.113-2.23-7.113-5.959
					s1.156,0.102,7.614,0.352C2072.865,75.065,2076.318,75.355,2075.167,76.97z"/>
			</g>
			<path fill="#E55A71" d="M2050.41,90.496c0,0,8.166,2.332,7.332,3.5c-0.833,1.166-2.832,3.666-1.832,7
				c1,3.332-5.016,3.537-6.516,1.869c-1.5-1.666-3.152-3.037-1.652-7.369C2049.242,91.162,2050.41,90.496,2050.41,90.496z"/>
		</g>
	</g>
</g>
<g id="Layer_14">
	<g>
		<g>
			<path d="M1973.576,143.161c-13.5,2-11.5,18.5-25.5,21c-10.236,1.828-20.994-1.158-28.781-4.85
				c0.281-39.65-34.469-67.15-34.469-67.15s23.75-17.5,9.25-51c-5.467-12.629-1.75-25.75-9.182-23.639
				c-7.391,2.1-10.054,16.741-12.992,17.827c-18.426,6.812-28.099,3.377-28.099,3.377s-5.45-5.482-15.478-8.815
				c-10.885-3.619-12.25,3.917-6.916,11.917c5.791,8.687,6.158,11.142,6.666,21.583c1.672,34.329,17.194,32.07,25.497,34.07
				c0,0,0.37,1.156-0.097,4.429c-7.166-1.912-12.386-3.484-17.746-1.702c-20.154,6.702-7.329,19.265-5.427,18.099
				c15.778-9.668,21.717-0.813,21.717-0.813c-0.485,8.168-7.03,46.24-10,47.666c-6.283,3.02-11.944,3.5-14.265,10
				c-2.319,6.5,4.32,11.5,7.82,11.5s20.777-2,24-25c0.338-2.408,2.314,4.086,9.333,13c5.091,6.467,19.356,6.361,18.667,10.5
				c-1.727,10.357,13.5,6.287,13.5,6.287c9.953-1.658,13.622-6.154,17-18.787c41,9.5,47-10,52.5-18.83s20.5,0.107,20.5,0.107
				S1987.076,141.161,1973.576,143.161z"/>
			<path fill="#FCFCFC" d="M1853.428,74.276c0.465,3.699-2.421,5.172-6.348,5.666c-3.928,0.494-7.488-2.104-7.953-5.803
				c-0.273-2.185,1.781,0.027,7.214,0.353C1851.229,74.784,1853.313,73.367,1853.428,74.276z"/>
			<path fill="#FCFCFC" d="M1877.727,73.941c-0.92,2.565-1.732,4.174-5.543,5.249c-3.809,1.073-7.451-0.216-8.463-3.805
				c-1.012-3.588,1.141-0.216,7.424-1.727C1874.994,72.731,1878.396,72.073,1877.727,73.941z"/>
		</g>
	</g>
</g>
<g id="Layer_15">
	<g>
		<g>
			<g>
				<path d="M1773.494,143.161c-13.5,2-11.5,18.5-25.5,21c-10.236,1.828-20.994-1.16-28.781-4.85
					c0.281-39.65-34.052-64.984-34.052-64.984s21.43-7.5,17.33-51.5c-0.415-4.453,3.589-21.309-2.355-19.38
					c-7.309,2.37-10.975,14.714-24.642,15.38c-12.984,0.633-23.718-3.417-23.718-3.417s-3.607-9.141-11.782-14.5
					c-6.743-4.42-11-0.75-8,9.25s0.491,16.008,0,31c-1,30.5,12.697,31,21,33c0,0,1.25-0.25,0.25,4.75
					c-7.167-1.913-12.365-0.836-17.595,1.297c-17.655,7.203-5.567,19.76-3.665,18.594c15.778-9.668,19.954-1.307,19.954-1.307
					c-0.486,8.166-7.029,46.238-10,47.666c-6.283,3.018-11.944,3.5-14.264,10c-2.32,6.5,4.319,11.5,7.819,11.5s20.778-2,24-25
					c0.337-2.408,2.313,4.084,9.333,13c5.092,6.467,19.356,6.361,18.667,10.5c-1.726,10.357,13.5,6.287,13.5,6.287
					c9.953-1.66,13.622-6.154,17-18.787c41,9.5,47-10,52.5-18.83s20.5,0.105,20.5,0.105S1786.994,141.161,1773.494,143.161z"/>
				<path fill="#FCFCFC" d="M1651.776,71.331c0,3.728-3.047,4.83-7.004,4.83c-3.959,0-7.167-3.021-7.167-6.75
					c0-2.202,1.764,0.25,7.113,1.25C1649.532,71.56,1651.776,70.414,1651.776,71.331z"/>
				<path fill="#FCFCFC" d="M1675.085,76.969c-1.581,2.219-2.8,3.549-6.759,3.549c-3.957,0-7.113-2.23-7.113-5.959
					c0-3.728,1.156,0.102,7.614,0.352C1672.783,75.064,1676.235,75.354,1675.085,76.969z"/>
			</g>
			<path fill="#E55A71" d="M1650.327,90.495c0,0,8.167,2.333,7.334,3.5c-0.834,1.166-2.834,3.667-1.834,7
				c1,3.332-5.015,3.537-6.515,1.869c-1.5-1.666-3.151-3.037-1.651-7.37C1649.161,91.161,1650.327,90.495,1650.327,90.495z"/>
		</g>
	</g>
</g>
<g id="Layer_16">
	<g>
		<g>
			<path d="M1573.494,143.161c-13.5,2-11.5,18.5-25.5,21c-10.236,1.828-20.994-1.158-28.781-4.85
				c0.281-39.65-34.469-67.15-34.469-67.15s23.75-17.5,9.25-51c-5.467-12.629-1.75-25.75-9.182-23.639
				c-7.391,2.1-10.054,16.741-12.992,17.827c-18.426,6.812-28.099,3.377-28.099,3.377s-5.45-5.482-15.478-8.815
				c-10.885-3.619-12.25,3.917-6.916,11.917c5.791,8.687,6.158,11.142,6.666,21.583c1.672,34.329,17.194,32.07,25.497,34.071
				c0,0,0.37,1.156-0.097,4.429c-7.166-1.912-12.386-3.484-17.746-1.701c-20.154,6.701-7.329,19.264-5.427,18.098
				c15.778-9.668,21.717-0.813,21.718-0.813c-0.486,8.168-7.031,46.24-10.001,47.666c-6.283,3.02-11.944,3.5-14.265,10
				c-2.319,6.5,4.32,11.5,7.82,11.5s20.777-2,24-25c0.338-2.408,2.314,4.086,9.333,13c5.091,6.467,19.356,6.361,18.667,10.5
				c-1.727,10.357,13.5,6.287,13.5,6.287c9.953-1.658,13.622-6.154,17-18.787c41,9.5,47-10,52.5-18.83s20.5,0.107,20.5,0.107
				S1586.994,141.161,1573.494,143.161z"/>
			<path fill="#FCFCFC" d="M1453.346,74.276c0.465,3.699-2.421,5.172-6.348,5.666c-3.928,0.493-7.488-2.105-7.953-5.804
				c-0.273-2.185,1.781,0.027,7.214,0.353C1451.146,74.783,1453.231,73.366,1453.346,74.276z"/>
			<path fill="#FCFCFC" d="M1477.645,73.94c-0.92,2.564-1.732,4.174-5.543,5.248c-3.809,1.074-7.451-0.216-8.463-3.805
				c-1.012-3.588,1.141-0.216,7.424-1.727C1474.912,72.731,1478.314,72.072,1477.645,73.94z"/>
		</g>
	</g>
</g>
<g id="Layer_17">
	<g>
		<g>
			<g>
				<path d="M1373.494,143c-13.5,2-11.5,18.5-25.5,21c-10.236,1.828-20.994-1.16-28.781-4.85
					c0.281-39.65-34.053-64.985-34.053-64.985s21.431-7.5,17.331-51.5c-0.415-4.453,3.589-21.309-2.355-19.38
					c-7.308,2.37-10.975,14.714-24.642,15.38c-12.984,0.633-23.717-3.417-23.717-3.417s-3.607-9.141-11.783-14.5
					c-6.742-4.42-11-0.75-8,9.25s0.492,16.008,0,31c-1,30.5,12.697,31,21,33c0,0,1.25-0.25,0.25,4.75
					c-7.166-1.914-12.365-0.836-17.596,1.297c-17.654,7.203-5.566,19.76-3.664,18.594c15.778-9.668,19.954-1.307,19.955-1.307
					c-0.486,8.166-7.031,46.238-10.001,47.666c-6.283,3.018-11.944,3.5-14.265,10c-2.319,6.5,4.32,11.5,7.82,11.5s20.777-2,24-25
					c0.338-2.408,2.314,4.084,9.333,13c5.091,6.467,19.356,6.361,18.667,10.5c-1.727,10.357,13.5,6.287,13.5,6.287
					c9.953-1.66,13.622-6.154,17-18.787c41,9.5,47-10,52.5-18.83s20.5,0.105,20.5,0.105S1386.994,141,1373.494,143z"/>
				<path fill="#FCFCFC" d="M1251.777,71.169c0,3.729-3.047,4.83-7.006,4.83c-3.957,0-7.166-3.021-7.166-6.75
					c0-2.202,1.764,0.25,7.113,1.25C1249.531,71.398,1251.777,70.252,1251.777,71.169z"/>
				<path fill="#FCFCFC" d="M1275.085,76.808c-1.581,2.219-2.8,3.548-6.759,3.548c-3.957,0-7.113-2.229-7.113-5.958
					s1.156,0.102,7.614,0.352C1272.783,74.902,1276.236,75.192,1275.085,76.808z"/>
			</g>
			<path fill="#E55A71" d="M1250.328,90.333c0,0,8.166,2.333,7.332,3.5c-0.833,1.167-2.832,3.667-1.832,7.001
				c1,3.332-5.016,3.537-6.516,1.869c-1.5-1.666-3.152-3.037-1.652-7.371C1249.16,91,1250.328,90.333,1250.328,90.333z"/>
		</g>
	</g>
</g>
<g id="Layer_18">
	<g>
		<g>
			<path d="M1173.494,143.16c-13.5,2-11.5,18.501-25.5,21.001c-10.236,1.828-20.994-1.16-28.781-4.85
				c0.281-39.651-34.469-67.151-34.469-67.151s23.75-17.5,9.25-51c-5.467-12.629-1.75-25.75-9.182-23.639
				c-7.391,2.1-10.054,16.741-12.992,17.827c-18.426,6.812-28.099,3.377-28.099,3.377s-5.45-5.482-15.478-8.815
				c-10.885-3.619-12.25,3.917-6.916,11.917c5.791,8.687,6.158,11.142,6.666,21.583c1.672,34.33,17.194,32.07,25.497,34.07
				c0,0,0.37,1.156-0.097,4.43c-7.166-1.912-12.386-3.484-17.746-1.701c-20.154,6.701-7.329,19.264-5.427,18.098
				c15.778-9.668,21.717-0.813,21.718-0.813c-0.486,8.168-7.031,46.239-10.001,47.667c-6.283,3.018-11.944,3.5-14.265,10
				c-2.319,6.5,4.32,11.5,7.82,11.5s20.777-2,24-25c0.338-2.408,2.314,4.084,9.333,13c5.091,6.467,19.356,6.361,18.667,10.5
				c-1.727,10.357,13.5,6.287,13.5,6.287c9.953-1.66,13.622-6.154,17-18.787c41,9.5,47-10,52.5-18.83
				c5.5-8.831,20.5,0.105,20.5,0.105S1186.994,141.16,1173.494,143.16z"/>
			<path fill="#FCFCFC" d="M1053.346,74.275c0.465,3.699-2.421,5.172-6.348,5.666c-3.928,0.494-7.488-2.104-7.953-5.803
				c-0.273-2.185,1.781,0.027,7.214,0.353C1051.146,74.783,1053.231,73.366,1053.346,74.275z"/>
			<path fill="#FCFCFC" d="M1077.645,73.94c-0.92,2.565-1.732,4.174-5.543,5.249c-3.809,1.073-7.451-0.216-8.463-3.805
				c-1.012-3.588,1.141-0.216,7.424-1.727C1074.912,72.73,1078.314,72.072,1077.645,73.94z"/>
		</g>
	</g>
</g>
<g id="Layer_19">
	<g>
		<g>
			<g>
				<path d="M973.494,143.162c-13.5,2-11.5,18.5-25.5,21c-10.236,1.828-20.994-1.16-28.781-4.85
					c0.281-39.65-34.053-64.986-34.053-64.986s21.431-7.5,17.331-51.5c-0.415-4.453,3.589-21.309-2.355-19.38
					c-7.308,2.37-10.975,14.714-24.642,15.38c-12.984,0.633-23.717-3.417-23.717-3.417s-3.607-9.141-11.783-14.5
					c-6.742-4.42-11-0.75-8,9.25s0.492,16.008,0,31c-1,30.5,12.697,31,21,33c0,0,1.25-0.25,0.25,4.751
					c-7.166-1.914-12.365-0.836-17.596,1.297c-17.654,7.203-5.566,19.76-3.664,18.594c15.778-9.668,19.954-1.307,19.955-1.307
					c-0.486,8.166-7.031,46.238-10.001,47.666c-6.283,3.018-11.944,3.5-14.265,10c-2.319,6.5,4.32,11.5,7.82,11.5s20.777-2,24-25
					c0.338-2.408,2.314,4.084,9.333,13c5.091,6.467,19.356,6.361,18.667,10.5c-1.727,10.357,13.5,6.287,13.5,6.287
					c9.953-1.66,13.622-6.154,17-18.787c41,9.5,47-10,52.5-18.83s20.5,0.105,20.5,0.105S986.994,141.162,973.494,143.162z"/>
				<path fill="#FCFCFC" d="M851.777,71.331c0,3.729-3.047,4.83-7.006,4.83c-3.957,0-7.166-3.021-7.166-6.75
					c0-2.201,1.764,0.25,7.113,1.25C849.531,71.559,851.777,70.414,851.777,71.331z"/>
				<path fill="#FCFCFC" d="M875.085,76.969c-1.581,2.219-2.8,3.548-6.759,3.548c-3.957,0-7.113-2.229-7.113-5.958
					s1.156,0.102,7.614,0.352C872.783,75.063,876.236,75.353,875.085,76.969z"/>
			</g>
			<path fill="#E55A71" d="M850.328,90.494c0,0,8.166,2.333,7.332,3.5c-0.833,1.167-2.832,3.668-1.832,7.002
				c1,3.332-5.016,3.537-6.516,1.869c-1.5-1.666-3.152-3.038-1.652-7.372C849.16,91.161,850.328,90.494,850.328,90.494z"/>
		</g>
	</g>
</g>
<g id="Layer_20">
	<g>
		<g>
			<path d="M773.494,143.16c-13.5,2-11.5,18.5-25.5,21c-10.236,1.828-20.994-1.158-28.781-4.85
				c0.281-39.65-36.219-65.15-36.219-65.15s26.1-9,22-53c-0.415-4.453,5.278-21.928-0.666-20
				c-7.308,2.37-14.333,14.667-28.001,15.333c-12.984,0.633-23.333-6.333-23.333-6.333s-6.491-9.307-14.667-14.667
				c-6.742-4.42-9.333,4.667-6.333,14.667s0.661,16.015,0,31c-1,22.667,12,29,21,33c0,0-1.511-0.01-2.722,11.279
				c-9.111-3.324-14.623-5.23-22.611-2.148c-4.735,1.828-13.939,2.703-13.667,11.369c0.157,5.012,5.612,10.348,9.833,6.668
				c13-11.334,25-0.334,25-0.334c-0.486,8.168-3.918,42.74-6.889,44.166c-6.283,3.02-11.944,3.5-14.264,10
				c-2.32,6.5,4.319,11.5,7.819,11.5s20.778-2,24-25c0.337-2.408,2.313,4.086,9.333,13c5.092,6.467,19.356,6.361,18.667,10.5
				c-1.726,10.357,13.5,6.287,13.5,6.287c9.953-1.658,13.622-6.154,17-18.787c41,9.5,47-10,52.5-18.83s20.5,0.107,20.5,0.107
				S786.994,141.16,773.494,143.16z"/>
			<path fill="#FCFCFC" d="M654.605,62.078c0,3.728-3.209,6.75-7.167,6.75s-7.166-3.022-7.166-6.75s2.555-4.083,7.166-1.75
				C650.97,62.115,654.605,61.161,654.605,62.078z"/>
			<path fill="#FCFCFC" d="M682.661,65.807c0,3.729-3.209,6.75-7.168,6.75c-3.957,0-7.166-3.021-7.166-6.75s3.21-1,7.167-1
				C679.453,64.807,682.661,63.824,682.661,65.807z"/>
		</g>
	</g>
</g>
<g id="Layer_21">
	<g>
		<g>
			<path d="M573.494,143.16c-13.5,2-11.5,18.5-25.5,21c-10.236,1.828-20.994-1.158-28.781-4.85
				c0.281-39.65-36.219-65.15-36.219-65.15s26.1-9,22-53c-0.415-4.453,5.278-21.928-0.666-20c-7.309,2.37-14.334,14.667-28,15.333
				c-12.984,0.633-23.334-6.333-23.334-6.333s-6.491-9.307-14.666-14.667c-6.743-4.42-9.334,4.667-6.334,14.667s0.661,16.015,0,31
				c-1,22.667,12,29,21,33c0,0-2.678,8.035-3.889,19.324c-9.111-3.324-19.198,0.512-22.925,2.51
				c-5.119,2.744-8.752,1.832-7.187,11.5c1.002,6.184,9.029,7.908,11.377,4.908c7.234-9.242,18.734-1.574,18.734-1.574
				c-0.486,8.166-4.197,32.906-7.167,34.332c-6.283,3.02-11.944,3.5-14.265,10c-2.319,6.5,4.32,11.5,7.82,11.5s20.777-2,24-25
				c0.338-2.408,2.314,4.086,9.333,13c5.091,6.467,19.356,6.361,18.667,10.5c-1.727,10.357,13.5,6.287,13.5,6.287
				c9.953-1.658,13.622-6.154,17-18.787c41,9.5,47-10,52.5-18.83s20.5,0.107,20.5,0.107S586.994,141.16,573.494,143.16z"/>
			<ellipse fill="#FCFCFC" cx="447.438" cy="60.744" rx="7.167" ry="6.75"/>
			<ellipse fill="#FCFCFC" cx="476.327" cy="64.494" rx="7.167" ry="6.75"/>
		</g>
	</g>
</g>
<g id="Layer_22">
	<g>
		<g>
			<path d="M374.5,143c-13.5,2-11.5,18.5-25.5,21c-10.236,1.828-20.994-1.16-28.781-4.85C320.5,119.5,284,94,284,94s26.1-9,22-53
				c-0.415-4.453,5.944-25.428,0-23.5c-7.309,2.37-12,9.5-24,14.5s-28-2-28-2s-10.824-10.141-19-15.5c-6.742-4.42-5,5.5-2,15.5
				s0,16,0,31s7.334,28.333,21,33c0,0-4.039,17.461-5.25,28.75c-5.806,2.004-10.131,5.443-13.5,8C231.148,133.861,218,148,224,153.5
				c4.618,4.232,9.713,6.361,11.5,3c7.444-14,12.25-14.25,12.25-14.25c-0.486,8.166-1.836,21.656-4.806,23.082
				C236.661,168.352,231,168.5,228.68,175c-2.319,6.5,4.32,11.5,7.82,11.5s20.777-2,24-25c0.338-2.408,2.314,4.084,9.333,13
				c5.091,6.467,19.356,6.361,18.667,10.5c-1.727,10.357,13.5,6.287,13.5,6.287c9.953-1.66,13.622-6.154,17-18.787
				c41,9.5,47-10,52.5-18.83s20.5,0.105,20.5,0.105S388,141,374.5,143z"/>
			<ellipse fill="#FCFCFC" cx="250.111" cy="59.25" rx="7.167" ry="6.75"/>
			<ellipse fill="#FCFCFC" cx="280" cy="63" rx="7.167" ry="6.75"/>
		</g>
	</g>
</g>
<g id="Layer_23">
	<path d="M174.5,143c-13.5,2-11.5,18.5-25.5,21c-10.236,1.828-20.994-1.159-28.781-4.85C120.5,119.5,84,94,84,94s26.1-9,22-53
		c-0.415-4.453,5.944-25.428,0-23.5C98.692,19.87,94,27,82,32s-28-2-28-2S43.175,19.859,35,14.5c-6.743-4.42-5,5.5-2,15.5s0,16,0,31
		s12,29,21,33c0,0-5.5,27.5-6,37s-0.16,31.168-4.667,33.333C37.05,167.352,31,168.5,28.68,175s4.32,11.5,7.82,11.5s7.5-4,7.5-4
		s8.071,6.167,13.278,6.5c17,1.086,19.722-11.5,19.722-11.5s2.527,0.337,5,0.5c4.492,0.296,8-2,6.5,7
		c-1.726,10.357,13.5,6.287,13.5,6.287c9.953-1.659,13.622-6.154,17-18.787c41,9.5,47-10,52.5-18.83s20.5,0.106,20.5,0.106
		S188,141,174.5,143z M60.5,164c-3,2-3,3.5-3,3.5s-0.5-3,0-5s3-7,3-7S63.5,162,60.5,164z"/>
	<ellipse fill="#FCFCFC" cx="54.667" cy="56.75" rx="7.167" ry="6.75"/>
	<ellipse fill="#FCFCFC" cx="81.167" cy="59.25" rx="7.167" ry="6.75"/>
</g>
</svg>
